[
    {
      "uuids": [
        "613d0870de564ca79472c10659dc09d9"
      ],
      "patch": [
        {
          "path": "/admin_state",
          "value": "enabled",
          "op": "replace"
        },
        {
          "path": "/speed/current",
          "value": 10000,
          "op": "replace"
        },
        {
          "path": "/description",
          "value": "timSwitchPort1",
          "op": "replace"
        },
        {
          "path": "/name",
          "value": "timPort1",
          "op": "replace"
        }
      ]
    }
  ]


  https://192.168.104.58/api/ports



  curl -X PATCH "https://192.168.104.58/api/ports" -H "accept: application/json; version=1.0" -H "Authorization: 8675055df2056963ce86a167e63d0817a9f801ae6444c55b29a704aa27ebb961ba11de20c4f4d622967c1c792205b3ec" -H "Content-Type: application/json" -d "[ { \"uuids\": [ \"613d0870de564ca79472c10659dc09d9\" ], \"patch\": [ { \"path\": \"/admin_state\", \"value\": \"enabled\", \"op\": \"replace\" }, { \"path\": \"/speed/current\", \"value\": 10000, \"op\": \"replace\" }, { \"path\": \"/description\", \"value\": \"timSwitchPort1\", \"op\": \"replace\" }, { \"path\": \"/name\", \"value\": \"timPort1\", \"op\": \"replace\" }, { \"path\": \"/native_vlan\", \"value\": 10, \"op\": \"replace\" } ] }]"


  {
    "count": 1,
    "result": null,
    "time": "228.888mS"
  }

